[
	{"id":1,"image":"data/products/5.jpg", "count":"x2", "product_name":"Product_1" ,"size": "M", "unit_price":"99.00", "subtotal":"99.00", "shipping_and_handling":"Free Shipping", "color":"White" },
	{"id":2,"image":"data/products/5.jpg", "count":"x2", "product_name":"Product_2" ,"size": "M", "unit_price":"99.00", "subtotal":"99.00", "shipping_and_handling":"Free Shipping", "color":"Red" },
	{"id":3,"image":"data/products/5.jpg", "count":"x2", "product_name":"Product_3" ,"size": "M", "unit_price":"99.00", "subtotal":"99.00", "shipping_and_handling":"Free Shipping", "color":"Black" },
	{"id":4,"image":"data/products/5.jpg", "count":"x2", "product_name":"Product_4" ,"size": "M", "unit_price":"99.00", "subtotal":"99.00", "shipping_and_handling":"Free Shipping", "color":"Silver" },
	{"id":5,"image":"data/products/5.jpg", "count":"x2", "product_name":"Product_5" ,"size": "M", "unit_price":"99.00", "subtotal":"99.00", "shipping_and_handling":"Free Shipping", "color":"Green" },
	{"id":6,"image":"data/products/5.jpg", "count":"x2", "product_name":"Product_6" ,"size": "M", "unit_price":"99.00", "subtotal":"99.00", "shipping_and_handling":"Free Shipping", "color":"Pink" }
]